^C:\USERS\SYSTEMX\DESKTOP\17.5\X64\DEBUG\17.5.OBJ
C:\USERS\SYSTEMX\DESKTOP\17.5\X64\DEBUG\17.5.ILK
C:\USERS\SYSTEMX\DESKTOP\17.5\X64\DEBUG\17.5.EXE
C:\USERS\SYSTEMX\DESKTOP\17.5\X64\DEBUG\17.5.PDB
